{
    "defaultSeverity": "error",
    "extends": [
        "tslint:recommended"
    ],
    "linterActions": {
        "exclude": [
            "./node_modules"
        ]
    },
    "jsRules": {},
    "rules": {},
    "rulesDirectory": []
}